Regression Textbook Supplement - 3 Simple Linear Regression Models
…
95% CI[.04,.38]

3.4 Pages 49 to 50 Predicted/Fitted Values

When you look at the graph with life_satis on the x-axis and opioid_od_death_rate on the y-axis you see a regression line. The points that fall on this line are predicted scores for opioid_od_death_rate based on life_satis. Alternatively, we might call these fitted values for opioid_od_death_rate based on life_satis. We can obtained a predicted score (i.e., fitted score) for each x-axis value using augment() command fromm the broom package. When you inspect the output below only pay attention to the opioid_od_death_rate, life_satis, and .fitted columns. The column pioid_od_death_rate is the measured opiod overdose death rate, the column life_satis is the measured life satisfaction, the column .fitted is the predicted opiod overdose death rate for a given life_satis value.

lrm3_1 <- lm(opioid_od_death_rate ~ life_satis,
             data = statedata2018)

library(broom)
lrm3_1 %>%
  augment()

# A tibble: 50 × 8
   opioid_od_death_rate life_satis .fitted  .resid   .hat .sigma   .cooksd
                  <dbl>      <dbl>   <dbl>   <dbl>  <dbl>  <dbl>     <dbl>
 1                  9         51.4    17.1  -8.08  0.0214   9.31 0.00844  
 2                 13.9       52.1    14.6  -0.676 0.0217   9.39 0.0000598
 3                 13.5       51.4    17.2  -3.72  0.0217   9.37 0.00182  
 4                  6.5       52.3    13.6  -7.07  0.0252   9.33 0.00768  
 5                  5.3       51.5    16.8 -11.5   0.0208   9.24 0.0167   
 6                 10         52.9    11.6  -1.56  0.0381   9.39 0.000579 
 7                 27.7       50.5    20.6   7.08  0.0415   9.33 0.0131   
 8                 27.8       52.7    12.1  15.7   0.0340   9.10 0.0521   
 9                 16.3       51.1    18.4  -2.13  0.0262   9.38 0.000726 
10                  9.7       51.2    17.9  -8.23  0.0240   9.31 0.00988  
# ℹ 40 more rows
# ℹ 1 more variable: .std.resid <dbl>
…
